Comparador/Comparador_MaiorQue/simulation/qsim/comp_maior.msim.vcd
$comment
	File created using the following command:
		vcd file comp_maior.msim.vcd -direction
$end
$date
	Fri Jul 16 16:54:01 2021
$end
$version
	ModelSim Version 2020.1
$end
$timescale
	1ps
$end

$scope module comp_maior_5bits_vlg_vec_tst $end
$var reg 1 ! A $end
$var reg 1 " B $end
$var wire 1 # Saida_final $end

$scope module i1 $end
$var wire 1 $ gnd $end
$var wire 1 % vcc $end
$var wire 1 & unknown $end
$var tri1 1 ' devclrn $end
$var tri1 1 ( devpor $end
$var tri1 1 ) devoe $end
$var wire 1 * Saida_final~output_o $end
$var wire 1 + A~input_o $end
$var wire 1 , B~input_o $end
$var wire 1 - inst4|inst5~0_combout $end
$upscope $end
$upscope $end
$enddefinitions $end
#0
$dumpvars
0!
0"
0#
0$
1%
x&
1'
1(
1)
0*
0+
0,
0-
$end
#50000
1!
1+
1-
1*
1#
#100000
0!
0+
0-
0*
0#
#125000
1"
1,
#150000
1!
1+
#200000
0!
0+
#250000
0"
1!
0,
1+
1-
1*
1#
#300000
0!
0+
0-
0*
0#
#350000
1!
1+
1-
1*
1#
#375000
1"
1,
0-
0*
0#
#400000
0!
0+
#450000
1!
1+
#500000
0"
0!
0,
0+
#550000
1!
1+
1-
1*
1#
#600000
0!
0+
0-
0*
0#
#625000
1"
1,
#650000
1!
1+
#700000
0!
0+
#750000
0"
1!
0,
1+
1-
1*
1#
#800000
0!
0+
0-
0*
0#
#850000
1!
1+
1-
1*
1#
#875000
1"
1,
0-
0*
0#
#900000
0!
0+
#950000
1!
1+
