Comparador/Comparador_Igualdade/simulation/qsim/Igualdade.msim.vcd
$comment
	File created using the following command:
		vcd file Igualdade.msim.vcd -direction
$end
$date
	Fri Jul 16 14:33:13 2021
$end
$version
	ModelSim Version 2020.1
$end
$timescale
	1ps
$end

$scope module modulo_unico_5bits_compactado_vlg_vec_tst $end
$var reg 1 ! A $end
$var reg 1 " B $end
$var wire 1 # Saida_final $end

$scope module i1 $end
$var wire 1 $ gnd $end
$var wire 1 % vcc $end
$var wire 1 & unknown $end
$var tri1 1 ' devclrn $end
$var tri1 1 ( devpor $end
$var tri1 1 ) devoe $end
$var wire 1 * Saida_final~output_o $end
$var wire 1 + A~input_o $end
$var wire 1 , B~input_o $end
$var wire 1 - inst|4|inst8~0_combout $end
$upscope $end
$upscope $end
$enddefinitions $end
#0
$dumpvars
0!
0"
1#
0$
1%
x&
1'
1(
1)
1*
0+
0,
0-
$end
#50000
1!
1+
1-
0*
0#
#100000
1"
0!
1,
0+
#150000
1!
1+
0-
1*
1#
#200000
0"
0!
0,
0+
#250000
1!
1+
1-
0*
0#
#300000
1"
0!
1,
0+
#350000
1!
1+
0-
1*
1#
#400000
0"
0!
0,
0+
#450000
1!
1+
1-
0*
0#
#500000
1"
0!
1,
0+
#550000
1!
1+
0-
1*
1#
#600000
0"
0!
0,
0+
#650000
1!
1+
1-
0*
0#
#700000
1"
0!
1,
0+
#750000
1!
1+
0-
1*
1#
#800000
0"
0!
0,
0+
#850000
1!
1+
1-
0*
0#
#900000
1"
0!
1,
0+
#950000
1!
1+
0-
1*
1#
